…
 ================================================== 
RESULTS
================================================== 

# A tibble: 66 × 8
   design biomarker_moderation biomarker_correlation carryover power mean_effect
   <chr>                 <dbl>                 <dbl>     <dbl> <dbl>       <dbl>
 1 cross…                 0                        0       0    0.15      0.0157
 2 cross…                 0                        0       0.5  0         0.0241
 3 cross…                 0                        0       1    0        -0.0217
 4 cross…                 0.25                     0       0    0.25      0.205 
 5 cross…                 0.25                     0       0.5  0.1       0.0791
 6 cross…                 0.25                     0       1    0.05      0.0603
 7 cross…                 0.35                     0       0    0.25      0.273 
 8 cross…                 0.35                     0       0.5  0.15      0.143 
 9 cross…                 0.35                     0       1    0.1       0.122 
10 cross…                 0.45                     0       0    0.45      0.342 
# ℹ 56 more rows
# ℹ 2 more variables: sd_effect <dbl>, n <int>
…
