…
 ================================================== 
RESULTS - CLUSTERED DESIGNS
================================================== 

# A tibble: 36 × 8
   design biomarker_moderation biomarker_correlation carryover power mean_effect
   <chr>                 <dbl>                 <dbl>     <dbl> <dbl>       <dbl>
 1 hybrid                 0                      0.3       0   0.05      -0.0556
 2 hybrid                 0                      0.3       0.5 0.05      -0.0182
 3 hybrid                 0                      0.3       1   0          0.0223
 4 hybrid                 0.25                   0.3       0   0.35       0.207 
 5 hybrid                 0.25                   0.3       0.5 0.25       0.145 
 6 hybrid                 0.25                   0.3       1   0.1        0.0436
 7 hybrid                 0.35                   0.3       0   0.55       0.283 
 8 hybrid                 0.35                   0.3       0.5 0.211      0.166 
 9 hybrid                 0.35                   0.3       1   0.105      0.0829
10 hybrid                 0.45                   0.3       0   0.85       0.385 
# ℹ 26 more rows
# ℹ 2 more variables: sd_effect <dbl>, n <int>
…
